FIFO_Buffer/fifo.vcd
$date
	Wed Mar 05 20:21:06 2025
$end
$version
	Icarus Verilog
$end
$timescale
	1ps
$end
$scope module fifo_tb $end
$var wire 1 ! Clk $end
$var wire 32 " dataOut [31:0] $end
$var wire 1 # FULL $end
$var wire 1 $ EMPTY $end
$var reg 1 % EN $end
$var reg 1 & RD $end
$var reg 1 ' Rst $end
$var reg 1 ( WR $end
$var reg 1 ) clk $end
$var reg 32 * dataIn [31:0] $end
$scope module uut $end
$var wire 1 ! Clk $end
$var wire 1 % EN $end
$var wire 1 & RD $end
$var wire 1 ' Rst $end
$var wire 1 ( WR $end
$var wire 32 + dataIn [31:0] $end
$var wire 1 # FULL $end
$var wire 1 $ EMPTY $end
$var reg 3 , Count [2:0] $end
$var reg 32 - dataOut [31:0] $end
$var reg 3 . readCounter [2:0] $end
$var reg 3 / writeCounter [2:0] $end
$upscope $end
$upscope $end
$enddefinitions $end
$comment Show the parameter values. $end
$dumpall
$end
#0
$dumpvars
b0 /
b0 .
bx -
b0 ,
b0 +
b0 *
0)
0(
1'
0&
0%
1$
0#
bx "
z!
$end
#10000
1)
#20000
0)
#30000
1)
#40000
0)
#50000
1)
#60000
0)
#70000
1)
#80000
0)
#90000
1)
#100000
0)
1%
#110000
1)
#120000
0)
1(
0'
#130000
1)
#140000
0)
b1 *
b1 +
#150000
1)
#160000
0)
b10 *
b10 +
#170000
1)
#180000
0)
b11 *
b11 +
#190000
1)
#200000
0)
b100 *
b100 +
#210000
1)
#220000
0)
1&
0(
